\relax 
\providecommand\babel@aux[2]{}
\@nameuse{bbl@beforestart}
\catcode `"\active 
\babel@aux{estonian}{}
\@writefile{toc}{\contentsline {section}{\numberline {1}Kompleksarvud}{1}\protected@file@percent }
\@writefile{lof}{\contentsline {figure}{\numberline {1}{\ignorespaces Kompleksarv komplekstasandil}}{1}\protected@file@percent }
\newlabel{joonis:kompleksarvud}{{1}{1}}
\@writefile{toc}{\contentsline {subsection}{\numberline {1.1}Algebraline (Descartes'i) kuju}{1}\protected@file@percent }
\@writefile{toc}{\contentsline {subsubsection}{\numberline {1.1.1}Tehted algebralisel kujul kompleksarvudega}{1}\protected@file@percent }
\@writefile{toc}{\contentsline {subsection}{\numberline {1.2}Trigonomeetriline kuju}{1}\protected@file@percent }
\@writefile{toc}{\contentsline {subsubsection}{\numberline {1.2.1}Kompleksarvu argumendi leidmine}{1}\protected@file@percent }
\@writefile{lof}{\contentsline {figure}{\numberline {2}{\ignorespaces Kompleksarvu argumendi leidmine veerandite järgi}}{1}\protected@file@percent }
\newlabel{joonis:argumendi-leidmine}{{2}{1}}
\@writefile{toc}{\contentsline {subsubsection}{\numberline {1.2.2}Tehted trigonomeetrilisel kujul kompleksarvudega}{1}\protected@file@percent }
\@writefile{toc}{\contentsline {subsection}{\numberline {1.3}Eksponentkuju}{1}\protected@file@percent }
\@writefile{toc}{\contentsline {section}{\numberline {2}Maatriksid}{2}\protected@file@percent }
\@writefile{toc}{\contentsline {subsection}{\numberline {2.1}Ühikmaatriks}{2}\protected@file@percent }
\@writefile{toc}{\contentsline {subsection}{\numberline {2.2}Maatriksite liitmine}{2}\protected@file@percent }
\@writefile{toc}{\contentsline {subsection}{\numberline {2.3}Maatriksite korrutamine reaalarvuga}{2}\protected@file@percent }
\@writefile{toc}{\contentsline {subsection}{\numberline {2.4}Võrdsus ja vastandmaatriks}{2}\protected@file@percent }
\@writefile{toc}{\contentsline {subsection}{\numberline {2.5}Maatriksi transponeerimine}{2}\protected@file@percent }
\@writefile{toc}{\contentsline {subsection}{\numberline {2.6}Maatriksite korrutamine}{2}\protected@file@percent }
\@writefile{toc}{\contentsline {subsection}{\numberline {2.7}Pöördmaatriks}{2}\protected@file@percent }
\@writefile{toc}{\contentsline {section}{\numberline {3}Lisad}{2}\protected@file@percent }
\@writefile{toc}{\contentsline {subsection}{\numberline {3.1}Trigonomeetriliste funktsioonide väärtused}{2}\protected@file@percent }
\@writefile{lot}{\contentsline {table}{\numberline {1}{\ignorespaces Trigonomeetriliste funktsioonide väärtused}}{2}\protected@file@percent }
